Data transformation
…
- How many patients have chronic kidney disease?

---
- group and count

```r
sinai_covid %>% 
  group_by(facility) %>% 
  count(smoking_status, diabetes)
```

```
## # A tibble: 27 × 4
## # Groups:   facility [5]
##    facility                    smoking_status diabetes     n
##    <chr>                       <chr>             <dbl> <int>
##  1 MOUNT SINAI BI BROOKLYN     NEVER                 0    67
##  2 MOUNT SINAI BI BROOKLYN     NEVER                 1    11
##  3 MOUNT SINAI BI BROOKLYN     QUIT                  0     3
##  4 MOUNT SINAI BI BROOKLYN     QUIT                  1     2
##  5 MOUNT SINAI BI BROOKLYN     YES                   1     1
##  6 MOUNT SINAI QUEENS HOSPITAL NEVER                 0    40
##  7 MOUNT SINAI QUEENS HOSPITAL NEVER                 1    17
##  8 MOUNT SINAI QUEENS HOSPITAL QUIT                  0    19
##  9 MOUNT SINAI QUEENS HOSPITAL QUIT                  1     9
## 10 MOUNT SINAI QUEENS HOSPITAL YES                   0     4
## # … with 17 more rows
```
…
